[FirstStartup]
[Classes]
Classes=GT1,GT2,GT3,GT4,GT5,GT6
[User]
UserName=user
CareerLoc=
Selected=true
LoadData=false
SaveCareer=false
[Car]
CarName=Koenigsegg CCGT
CarId=KOENIGSEGG CCGT
Author=Simbin
Classes=GT1
[Car]
CarName=Audi R8GT Sport
CarId=AUDI R8GT SPORT
Author=BullDog13/Viper
Classes=GT1
[Car]
CarName=Porsche 911 Biturbo
CarId=PORSCHE 911 BITURBO
Author=Simbin
Classes=GT3
[Car]
CarName=Ferrari 360 Modena
CarId=FERRARI 360 MODENA
Author=Simbin
Classes=GT3
[Car]
CarName=Morgan Aero 8
CarId=MORGAN AERO 8
Author=Simbin
Classes=GT3
[Car]
CarName=Audi R8GT3
CarId=R8GT3
Author=BullDog13
Classes=GT1
[Car]
CarName=Audi R8GT Wide Body
CarId=AUDI R8GT WIDE BODY
Author=BullDog13/Viper
Classes=GT1
[Car]
CarName=Nissan 350Z
CarId=NISSAN 350Z
Author=Simbin
Classes=GT4
[Car]
CarName=Porsche 997GT3-CUP
CarId=PORSCHE 997GT3-CUP
Author=Topgun & GTItalia
Classes=GT4
[Car]
CarName=Audi R8GT3 LMS
CarId=R8GT3 LMS
Author=BullDog13
Classes=GT3
[Car]
CarName=Volkswagen W12
CarId=VOLKSWAGEN W12
Author=GTI-HEIZER/SLOWMOTION
Classes=GT3
[Car]
CarName=Lamborghini Gallardo GT3
CarId=LAMBORGHINI GALLARDO GT3
Author=merlin75
Classes=GT2
[Car]
CarName=Porsche 911 GT2
CarId=PORSCHE 911 GT2
Author=Simbin
Classes=GT3
[Car]
CarName=Viper Competition Coupe
CarId=VIPER COMPETITION COUPE
Author=Simbin
Classes=GT4
[Car]
CarName=Porsche 997 GT3 Cup S
CarId=PORSCHE 997 GT3 CUP S
Author=doktor1
Classes=GT4
[Car]
CarName=Honda S2000
CarId=HONDA S2000
Author=BDST Merlin
Classes=GT3
[Car]
CarName=Ultima GTR
CarId=ULTIMA GTR
Author=RMT
Classes=GT4
[Car]
CarName=Peugeot V12
CarId=PEUGEOT V12
Author=AzRiM
Classes=GT1
[Car]
CarName=Subaru Impreza Widebody
CarId=GT WIDEBODY SUBARU
Author=The Stigg
Classes=GT2
[Car]
CarName=Aston Martin DBR9
CarId=ASTON MARTIN DBR9
Author=RMT
Classes=GT1
[Car]
CarName=Chrysler Viper GTS-R
CarId=CHRYSLER VIPER GTS-R
Author=Simbin
Classes=GT1
[Car]
CarName=Ferrari FXX
CarId=FERRARI FXX
Author=RMT
Classes=GT3
[Car]
CarName=Corvette Z06R GT3
CarId=CORVETTE Z06R GT3
Author=doktor1
Classes=GT4
[Car]
CarName=Porsche 997 GT3
CarId=PORSCHE 997 GT3
Author=COLVIN35
Classes=GT3
[Car]
CarName=Ferrari 550 Maranello
CarId=FERRARI 550 MARANELLO
Author=Simbin
Classes=GT1
[Car]
CarName=Audi R8GT SPEC
CarId=AUDI R8GT SPEC
Author=BullDog13/Viper
Classes=GT1
[Car]
CarName=Ferrari F430 GT
CarId=FERRARI F430 GT
Author=COLVIN35
Classes=GT3
[Car]
CarName=Porsche 911 Turbo TC3
CarId=PORSCHE 911 TC3
Author=papag21
Classes=GT3
[Car]
CarName=McLaren F1 GTR
CarId=MCLAREN F1 GTR
Author=RMT
Classes=GT1
[Car]
CarName=Porsche 911 Turbo TC2
CarId=PORSCHE 911 TC2
Author=papag21
Classes=GT2
[Car]
CarName=Porsche 911 Turbo TC1
CarId=PORSCHE 911 TC1
Author=papag21
Classes=GT1
[Car]
CarName=Porsche GT3-RS
CarId=PORSCHE GT3-RS
Author=Simbin
Classes=GT3
[Car]
CarName=Holden Commodore
CarId=HOLDEN VZ COMMODORE
Author=MR_INGALL
Classes=GT4
[Car]
CarName=Lamborghini Murcielago R-GT
CarId=LAMBORGHINI MURCIELAGO R-GT
Author=Simbin
Classes=GT1
[Car]
CarName=Ford GT40
CarId=FORD GT
Author=Sargazm
Classes=GT1
[Car]
CarName=BMW 1
CarId=BMW 1
Author=Nigave
Classes=GT6
[Car]
CarName=Porsche 996 GT3-RSR
CarId=PORSCHE 996 GT3-RSR
Author=Topgun & GTItalia
Classes=GT3
[Car]
CarName=Mitsubishi Lancer Evo VIII
CarId=MITSUBISHI LANCER EVO8
Author=zaomarano
Classes=GT3
[Car]
CarName=Gumpert Apollo GT
CarId=GUMPERT APOLLO GT
Author=Simbin
Classes=GT1
[Car]
CarName=Lister Storm
CarId=LISTER STORM
Author=Simbin
Classes=GT1
[Car]
CarName=Dodge Viper Competition Coupe
CarId=DODGE VIPER COMPETITION COUPE
Author=doktor1
Classes=GT4
[Car]
CarName=Audi R8 LMS
CarId=AUDI R8 LMS
Author=doktor1
Classes=GT4
[Car]
CarName=Mosler GT427R
CarId=MOSLER GT427R
Author=Gazman
Classes=GT1
[Car]
CarName=Aston Martin DBRS9
CarId=ASTON MARTIN DBRS9
Author=RMT
Classes=GT4
[Car]
CarName=Lotus Elise
CarId=LOTUS ELISE
Author=Simbin
Classes=GT5
[Car]
CarName=Ford Falcon
CarId=FORD FALCON BA
Author=MR_INGALL
Classes=GT4
[Car]
CarName=Porsche 997 GT3 RSR
CarId=PORSCHE 997 GT3 RSR
Author=Topgun & GTItalia
Classes=GT3
[Car]
CarName=Opel Astra V8 DTM
CarId=Opel Astra V8 Coupe
Author=Tolik87
Classes=GT2
[Car]
CarName=Chevrolet Corvette C6-R
CarId=CHEVROLET CORVETTE C6-R
Author=RMT
Classes=GT1
[Car]
CarName=Volkswagen Golf V GTI
CarId=VOLKSWAGEN GOLF V GTI
Author=Indiana
Classes=GT4
[Car]
CarName=Chevrolet Corvette C5-R
CarId=CHEVROLET CORVETTE C5-R
Author=Simbin
Classes=GT2
[Car]
CarName=Volkswagen Golf I GTI
CarId=VW GOLF I GTI CUP
Author=GTI-Heizer
Classes=GT6
[Car]
CarName=Lotus Exige CUP
CarId=LOTUS EXIGE CUP
Author=DarkDust
Classes=GT3
[Car]
CarName=Porsche 911 GT3 CUP
CarId=PORSCHE 911 GT3 CUP
Author=Simbin
Classes=GT4
[Car]
CarName=Alzen Porsche Tuning
CarId=ALZEN TUNING
Author=BullDog13
Classes=GT1
[Car]
CarName=BMW M1 Procar
CarId=BMW M1 PROCAR
Author=scca1981
Classes=GT2
[Car]
CarName=Saleen Mustang SE
CarId=SALEEN MUSTANG SE
Author=scca1981
Classes=GT1
[Car]
CarName=Saleen S7-R
CarId=SALEEN S7-R
Author=Simbin
Classes=GT1
[Car]
CarName=Porsche 997 GT3 CUP
CarId=PORSCHE 911 [997] GT3 CUP
Author=kiwisteve
Classes=GT4
[Car]
CarName=Marcos LM600
CarId=MARCOS LM600
Author=BorekS
Classes=GT2
[Car]
CarName=TVR T400R
CarId=TVR T400R
Author=Simbin
Classes=GT3
[Car]
CarName=Ford Mustang FR500 GT3
CarId=FORD MUSTANG FR500 GT3
Author=doktor1
Classes=GT4
[Car]
CarName=Ferrari F430 GT3
CarId=FERRARI F430 GT3
Author=doktor1
Classes=GT4
[Car]
CarName=Ferrari F430 GT2
CarId=FERRARI F430 GT2
Author=Topgun & GTItalia
Classes=GT3
[Car]
CarName=Maserati Trofeo Light
CarId=MASERATI TROFEO LIGHT
Author=RMT
Classes=GT4
[Car]
CarName=Ford GT GT3
CarId=FORD GT GT3
Author=doktor1
Classes=GT4
[Car]
CarName=Caterham CSR 320BHP
CarId=CATERHAM CSR 320BHP
Author=unknown
Classes=GT4
[Car]
CarName=BMW M3 GTR 2009
CarId=BMW M3 GTR-09-WILD
Author=wildman_fr
Classes=GT3
[Car]
CarName=Nissan R34
CarId=NISSAN R34
Author=zaomarano
Classes=GT5
[Car]
CarName=Mosler MT900R
CarId=MOSLER MT900R
Author=Simbin
Classes=GT3
[Car]
CarName=Porsche GT3-RSR
CarId=PORSCHE GT3-RSR
Author=Simbin
Classes=GT3
[Car]
CarName=Ferrari 575 GTC
CarId=FERRARI 575 GTC
Author=Simbin
Classes=GT1
[Car]
CarName=BMW Z3 M
CarId=BMW Z3 M
Author=Simbin
Classes=GT4
[Car]
CarName=Alzen Porsche VLN
CarId=ALZEN VLN
Author=BullDog13
Classes=GT2
[Car]
CarName=Audi RS4
CarId=AUDI_RS4
Author=Bulldog13/Viper
Classes=GT5
[Car]
CarName=Mazda MX5
CarId=MX-5
Author=Scca1981
Classes=GT6 
[Car]
CarName=BMW M3 GTR
CarId=BMW M3 GTR
Author=Simbin
Classes=GT3
[Car]
CarName=Seat Toledo GT
CarId=SEAT TOLEDO GT
Author=Simbin
Classes=GT3
[Car]
CarName=Volkswagen W12 GT
CarId=VOLKSWAGEN W12 GT
Author=GTI-HEIZER/SLOWMOTION
Classes=GT1
[Car]
CarName=Caterham CSR 260BHP
CarId=CATERHAM CSR 260BHP
Author=unknown
Classes=GT5
[Car]
CarName=Morgan Aero 8 GT3
CarId=MORGAN AERO 8 GT3
Author=doktor1
Classes=GT4
[Car]
CarName=Alzen Porsche 24H
CarId=ALZEN 24H
Author=BullDog13
Classes=GT1
[Car]
CarName=Gillet Vertigo Streiff
CarId=GILLET VERTIGO STREIFF
Author=Simbin
Classes=GT4
[Car]
CarName=Nissan R34 GT-SPEC
CarId=NISSAN R34 GT-SPEC
Author=zaomarano
Classes=GT2
[Car]
CarName=Nissan R34 NGT-SPEC
CarId=NISSAN R34 NGT-SPEC
Author=zaomarano
Classes=GT3
[Car]
CarName=Lotus Exige R-GT
CarId=EXIGE CUP
Author=absolute
Classes=GT1
[Car]
CarName=Maserati Gransport Light
CarId=MASERATI GRANSPORT LIGHT
Author=doktor1
Classes=GT4
[Car]
CarName=Alfa Romeo 8C Competizione
CarId=ALFA ROMEO 8C COMPETIZIONE
Author=RMi
Classes=GT4
[Car]
CarName=BMW Mini
CarId=BMW MINI COOPER
Author=Unknown Author
Classes=GT6
[Car]
CarName=Ferrari 360 GTC
CarId=FERRARI 360 GTC
Author=Simbin
Classes=GT3
[Car]
CarName=Ferrari F50 GT
CarId=FERRARI F50 GT
Author=RMT
Classes=GT1
[Car]
CarName=Audi RS4 V8
CarId=AUDI_RS4_V8
Author=Simbin
Classes=GT3
[Car]
CarName=Honda Civic
CarId=FM HONDA CIVIC CUP
Author=Scca1981
Classes=GT6
[Car]
CarName=Caterham CSR 200BHP
CarId=CATERHAM CSR 200BHP
Author=unknown
Classes=GT5
[Car]
CarName=Maserati MC12
CarId=MASERATI MC12
Author=Simbin
Classes=GT1
[Car]
CarName=Alfa Romeo 147
CarId=ALFA 147 TROPHY
Author=Indiana
Classes=GT6
[Car]
CarName=Panoz GTR1
CarId=PANOZ GTR1
Author=scca1981
Classes=GT2
[Track]
TrackName=Brianza HistA
TrackId=BRIANZA_HISTA
Author=N2LO
RefTimes=GT1#1:04.000,GT2#1:05.000,GT3#1:08.000,GT4#1:11.000,GT5#1:14.000,GT6#1:25.000,
Sets=Full
[Track]
TrackName=Losail
TrackId=LOSAIL
Author=tantra
RefTimes=GT1#1:55.000,GT2#1:57.000,GT3#2:01.000,GT4#2:07.000,GT5#2:12.000,GT6#2:21.000,
Sets=Full
[Track]
TrackName=Hockenheim 1999
TrackId=99HOCKENHEIM
Author=gobi
RefTimes=GT1#2:05.000,GT2#2:07.000,GT3#2:11.000,GT4#2:15.000,GT5#2:23.000,GT6#2:38.000,
Sets=Full
[Track]
TrackName=Estoril 2003
TrackId=3ESTORIL
Author=Simbin
RefTimes=GT1#1:35.000,GT2#1:38.000,GT3#1:42.000,GT4#1:45.000,GT5#1:49.000,GT6#1:57.000,
Sets=Full,2003,GTR2,
[Track]
TrackName=Denver 2005
TrackId=05DENVER
Author=N2LO
RefTimes=GT1#1:14.000,GT2#1:16.000,GT3#1:20.000,GT4#1:23.000,GT5#1:25.000,GT6#1:32.000,
Sets=Full
[Track]
TrackName=Laguna Seca
TrackId=LAGUNASECA
Author=DutchDevil
RefTimes=GT1#1:22.000,GT2#1:24.000,GT3#1:28.000,GT4#1:30.000,GT5#1:34.000,GT6#1:41.000,
Sets=Full
[Track]
TrackName=Road America
TrackId=GPROADAMERICA
Author=DutchDevil
RefTimes=GT1#2:01.000,GT2#2:04.000,GT3#2:08.000,GT4#2:14.000,GT5#2:22.000,GT6#2:33.000,
Sets=Full
[Track]
TrackName=Lemans 2004
TrackId=2004LEMANS
Author=Frank55
RefTimes=GT1#3:54.000,GT2#3:59.000,GT3#4:06.000,GT4#4:15.000,GT5#4:31.000,GT6#5:00.000,
Sets=Full
[Track]
TrackName=Imola 2004
TrackId=4IMOL
Author=Simbin
RefTimes=GT1#1:44.000,GT2#1:48.000,GT3#1:50.000,GT4#1:56.000,GT5#2:02.000,GT6#2:13.000,
Sets=2004,Full,GTR2,
[Track]
TrackName=Brands Hatch 2006
TrackId=GP_BRANDS_2006
Author=Gobi
RefTimes=GT1#1:26.000,GT2#1:28.000,GT3#1:30.000,GT4#1:34.000,GT5#1:38.000,GT6#1:45.000,
Sets=Full
[Track]
TrackName=Canberra
TrackId=MMMCANBERRA
Author=MR_INGALL
RefTimes=GT1#1:39.000,GT2#1:42.000,GT3#1:46.000,GT4#1:50.000,GT5#1:53.000,GT6#2:04.000,
Sets=Full
[Track]
TrackName=Miller Motorsports Park
TrackId=MILLER
Author=motorfx
RefTimes=GT1#2:41.000,GT2#2:45.000,GT3#2:52.000,GT4#2:58.000,GT5#3:04.000,GT6#3:17.000,
Sets=Full
[Track]
TrackName=Flash Raceway Park 2008
TrackId=FRP2008
Author=DEHawk
RefTimes=GT1#1:44.000,GT2#1:46.000,GT3#1:51.000,GT4#1:55.000,GT5#1:59.000,GT6#2:10.000,
Sets=Full
[Track]
TrackName=Valencia Long
TrackId=4NGVALENCIA
Author=Simbin
RefTimes=GT1#1:50.000,GT2#1:53.000,GT3#1:57.000,GT4#2:00.000,GT5#2:06.000,GT6#2:14.000,
Sets=Full,GTR2,
[Track]
TrackName=Barcelona National
TrackId=NBARCELONA
Author=Simbin
RefTimes=GT1#1:08.000,GT2#1:10.000,GT3#1:12.000,GT4#1:14.000,GT5#1:18.000,GT6#1:24.000,
Sets=Full,GTR2,
[Track]
TrackName=Mid America 2005
TrackId=MAM
Author=derDumeklemmer
RefTimes=GT1#1:21.000,GT2#1:22.000,GT3#1:27.000,GT4#1:30.000,GT5#1:32.000,GT6#1:38.000,
Sets=Full
[Track]
TrackName=Brands Hatch Indy
TrackId=INDY_BRANDS_2006
Author=Simbin
RefTimes=GT1#0:47.000,GT2#0:48.000,GT3#0:50.000,GT4#0:51.000,GT5#0:53.000,GT6#0:56.000,
Sets=Full
[Track]
TrackName=Mallory
TrackId=MALLORY
Author=Phil and MotorFX
RefTimes=GT1#0:42.000,GT2#0:43.000,GT3#0:46.000,GT4#0:47.000,GT5#0:48.000,GT6#0:52.000,
Sets=Full
[Track]
TrackName=Mexico 1967
TrackId=67_Mexico
Author=sunalp2
RefTimes=GT1#1:41.000,GT2#1:43.000,GT3#1:47.000,GT4#1:51.000,GT5#1:56.000,GT6#2:03.000,
Sets=Full
[Track]
TrackName=Croft 2007
TrackId=CROFT07
Author=motorfx
RefTimes=GT1#1:13.000,GT2#1:15.000,GT3#1:18.000,GT4#1:21.000,GT5#1:24.000,GT6#1:31.000,
Sets=Full
[Track]
TrackName=Brianza Italian GP
TrackId=BRIANZA_ITALIANGP
Author=N2LO
RefTimes=GT1#1:47.000,GT2#1:48.000,GT3#1:53.000,GT4#1:59.000,GT5#2:02.000,GT6#2:15.000,
Sets=Full
[Track]
TrackName=Vallelunga 2006
TrackId=06VALLELUNGA
Author=DutchDevil
RefTimes=GT1#1:36.000,GT2#1:38.000,GT3#1:40.000,GT4#1:44.000,GT5#1:49.000,GT6#1:52.000,
Sets=Full
[Track]
TrackName=Curitiba National
TrackId=NCURITIBA
Author=gobi & Werther
RefTimes=GT1#0:44.000,GT2#0:45.000,GT3#0:47.000,GT4#0:49.000,GT5#0:51.000,GT6#0:56.000,
Sets=Full
[Track]
TrackName=Dubai International
TrackId=IDUBAI
Author=Simbin
RefTimes=GT1#1:35.000,GT2#1:38.000,GT3#1:41.000,GT4#1:45.000,GT5#1:49.000,GT6#1:58.000,
Sets=Full,GTR2,
[Track]
TrackName=Essington Short
TrackId=SESSINGTON
Author=zwiss
RefTimes=GT1#1:03.000,GT2#1:05.000,GT3#1:07.000,GT4#1:09.000,GT5#1:14.000,GT6#1:18.000,
Sets=Full
[Track]
TrackName=Valencia National
TrackId=4NAVALENCIA
Author=Simbin
RefTimes=GT1#1:12.000,GT2#1:13.000,GT3#1:16.000,GT4#1:19.000,GT5#1:23.000,GT6#1:28.000,
Sets=Full,GTR2,
[Track]
TrackName=Assen GP 2001
TrackId=ASLONG
Author=zwiss
RefTimes=GT1#1:58.000,GT2#2:02.000,GT3#2:07.000,GT4#2:12.000,GT5#2:17.000,GT6#2:30.000,
Sets=Full
[Track]
TrackName=Jarama 1979
TrackId=GPCJARAMA
Author=motorfx
RefTimes=GT1#1:18.000,GT2#1:20.000,GT3#1:23.000,GT4#1:25.000,GT5#1:28.000,GT6#1:37.000,
Sets=Full
[Track]
TrackName=Dijon Prenois 2005
TrackId=GPDIJON
Author=zwiss
RefTimes=GT1#1:12.000,GT2#1:14.000,GT3#1:18.000,GT4#1:21.000,GT5#1:24.000,GT6#1:30.000,
Sets=Full
[Track]
TrackName=Mid Ohio Chicane
TrackId=VLM_CMIDOHIO
Author=Virtua_LM
RefTimes=GT1#1:20.000,GT2#1:22.000,GT3#1:26.000,GT4#1:28.000,GT5#1:30.000,GT6#1:38.000,
Sets=Full
[Track]
TrackName=Assen National
TrackId=ASNATIONAL
Author=zwiss
RefTimes=GT1#1:15.000,GT2#1:17.000,GT3#1:20.000,GT4#1:24.000,GT5#1:26.000,GT6#1:36.000,
Sets=Full
[Track]
TrackName=Barbagallo
TrackId=MMMBARBAGALLO
Author=MR_INGALL
RefTimes=GT1#0:53.000,GT2#0:54.000,GT3#0:56.000,GT4#0:58.000,GT5#1:00.000,GT6#1:05.000,
Sets=Full
[Track]
TrackName=Birmingham GP
TrackId=BIRMING_LONG
Author=DutchDevil
RefTimes=GT1#1:19.000,GT2#1:21.000,GT3#1:24.000,GT4#1:27.000,GT5#1:31.000,GT6#1:38.000,
Sets=Full
[Track]
TrackName=Aintree
TrackId=AINTREE
Author=philrob
RefTimes=GT1#1:35.000,GT2#1:37.000,GT3#1:40.000,GT4#1:44.000,GT5#1:48.000,GT6#2:00.000,
Sets=Full
[Track]
TrackName=Detroit 1988
TrackId=88DETROIT
Author=GTI-Heizer
RefTimes=GT1#1:52.000,GT2#1:54.000,GT3#1:58.000,GT4#2:02.000,GT5#2:09.000,GT6#2:16.000,
Sets=Full
[Track]
TrackName=Nordschleife Tourist
TrackId=TOURIST
Author=DutchDevil
RefTimes=GT1#6:43.000,GT2#6:55.000,GT3#7:11.000,GT4#7:27.000,GT5#7:43.000,GT6#8:23.000,
Sets=Full
[Track]
TrackName=Hidden Valley
TrackId=MMMHIDDENVALLEY
Author=MR_INGALL
RefTimes=GT1#1:02.000,GT2#1:03.000,GT3#1:06.000,GT4#1:08.000,GT5#1:11.000,GT6#1:17.000,
Sets=Full
[Track]
TrackName=Goodwood
TrackId=GOODWOOD
Author=motorfx
RefTimes=GT1#1:09.000,GT2#1:10.000,GT3#1:14.000,GT4#1:16.000,GT5#1:18.000,GT6#1:26.000,
Sets=Full
[Track]
TrackName=Brianza Oval
TrackId=BRIANZA_OVAL
Author=N2LO
RefTimes=GT1#0:51.000,GT2#0:52.000,GT3#0:56.000,GT4#0:58.000,GT5#1:00.000,GT6#1:13.000,
Sets=Full
[Track]
TrackName=Magny-Cours 2004
TrackId=4MAGNY
Author=Simbin
RefTimes=GT1#1:36.000,GT2#1:38.000,GT3#1:42.000,GT4#1:45.000,GT5#1:51.000,GT6#2:00.000,
Sets=2004,Full,GTR2,
[Track]
TrackName=Magny-Cours National
TrackId=NTMAGNY
Author=Simbin
RefTimes=GT1#0:55.000,GT2#0:57.000,GT3#0:59.000,GT4#1:01.000,GT5#1:04.000,GT6#1:10.000,
Sets=Full,GTR2,
[Track]
TrackName=Magny-Cours 2003
TrackId=3MAGNY
Author=Simbin
RefTimes=GT1#1:36.000,GT2#1:38.000,GT3#1:42.000,GT4#1:45.000,GT5#1:51.000,GT6#2:00.000,
Sets=Full,2003,GTR2,
[Track]
TrackName=Argentina no.12
TrackId=A12
Author=Tantra
RefTimes=GT1#1:20.000,GT2#1:22.000,GT3#1:26.000,GT4#1:31.000,GT5#1:34.000,GT6#1:44.000,
Sets=Full
[Track]
TrackName=Oschersleben 2004
TrackId=4OSCHERSLEBEN
Author=Simbin
RefTimes=GT1#1:24.000,GT2#1:26.000,GT3#1:30.000,GT4#1:34.000,GT5#1:36.000,GT6#1:41.000,
Sets=2004,Full,GTR2,
[Track]
TrackName=Oschersleben 2003
TrackId=3OSCHERSLEBEN
Author=Simbin
RefTimes=GT1#1:24.000,GT2#1:26.000,GT3#1:30.000,GT4#1:34.000,GT5#1:36.000,GT6#1:41.000,
Sets=Full,2003,GTR2,
[Track]
TrackName=Adria 2005
TrackId=5ADRIA
Author=CodeF1
RefTimes=GT1#1:13.000,GT2#1:14.000,GT3#1:16.000,GT4#1:19.000,GT5#1:23.000,GT6#1:29.000,
Sets=Full
[Track]
TrackName=Hungaroring 2006
TrackId=6HUNGARY
Author=GTR_Habatuz
RefTimes=GT1#1:42.000,GT2#1:43.000,GT3#1:48.000,GT4#1:52.000,GT5#1:55.000,GT6#2:03.000,
Sets=Full
[Track]
TrackName=Mills Long
TrackId=MILLS_LONG
Author=4ph3x
RefTimes=GT1#1:12.000,GT2#1:15.000,GT3#1:16.000,GT4#1:19.000,GT5#1:23.000,GT6#1:29.000,
Sets=Full
[Track]
TrackName=Road Atlanta
TrackId=ROADATLANTA
Author=DutchDevil
RefTimes=GT1#1:13.000,GT2#1:15.000,GT3#1:17.000,GT4#1:20.000,GT5#1:25.000,GT6#1:35.000,
Sets=Full
[Track]
TrackName=A1 Ring
TrackId=A1RING
Author=DutchDevil
RefTimes=GT1#1:28.000,GT2#1:30.000,GT3#1:34.000,GT4#1:37.000,GT5#1:41.000,GT6#1:52.000,
Sets=Full
[Track]
TrackName=Barcelona 2007
TrackId=7BARCELONA
Author=merlin75
RefTimes=GT1#1:38.000,GT2#1:41.000,GT3#1:45.000,GT4#1:49.000,GT5#1:52.000,GT6#2:05.000,
Sets=Full
[Track]
TrackName=Brno 2004
TrackId=4BRNO
Author=Simbin
RefTimes=GT1#1:55.000,GT2#1:57.000,GT3#2:02.000,GT4#2:08.000,GT5#2:13.000,GT6#2:22.000,
Sets=2004,Full,GTR2,
[Track]
TrackName=Brno 2003
TrackId=3BRNO
Author=Simbin
RefTimes=GT1#1:55.000,GT2#1:57.000,GT3#2:05.000,GT4#2:08.000,GT5#2:13.000,GT6#2:22.000,
Sets=Full,2003,GTR2,
[Track]
TrackName=Crystal Palace
TrackId=CRYSTALPALACE
Author=motorfx
RefTimes=GT1#0:46.000,GT2#0:47.000,GT3#0:49.000,GT4#0:51.000,GT5#0:53.000,GT6#0:58.000,
Sets=Full
[Track]
TrackName=Fundidora Park
TrackId=FUNDIDORA
Author=Piquet
RefTimes=GT1#1:26.000,GT2#1:27.000,GT3#1:31.000,GT4#1:34.000,GT5#1:35.000,GT6#1:43.000,
Sets=Full
[Track]
TrackName=Barcelona 2003
TrackId=3BARCELONA
Author=Simbin
RefTimes=GT1#1:37.000,GT2#1:40.000,GT3#1:45.000,GT4#1:48.000,GT5#1:53.000,GT6#2:01.000,
Sets=Full,2003,GTR2,
[Track]
TrackName=Mantorp
TrackId=MANTORP
Author=FuFFZich and SRF
RefTimes=GT1#1:12.000,GT2#1:14.000,GT3#1:16.000,GT4#1:19.000,GT5#1:22.000,GT6#1:29.000,
Sets=Full
[Track]
TrackName=Hungaroring FIA
TrackId=FIAHUNGARY
Author=GTR_HabatuZ & Greybrad
RefTimes=GT1#1:42.000,GT2#1:43.000,GT3#1:48.000,GT4#1:52.000,GT5#1:55.000,GT6#2:03.000,
Sets=Full
[Track]
TrackName=Long Beach 1979
TrackId=79LONGBEACH
Author=DutchDevil
RefTimes=GT1#1:21.000,GT2#1:24.000,GT3#1:26.000,GT4#1:29.000,GT5#1:32.000,GT6#1:41.000,
Sets=Full
[Track]
TrackName=Vallelunga International
TrackId=INTERNATIONAL
Author=DutchDevil
RefTimes=GT1#1:08.000,GT2#1:10.000,GT3#1:11.000,GT4#1:14.000,GT5#1:19.000,GT6#1:24.000,
Sets=Full
[Track]
TrackName=Vallelunga Trackday
TrackId=TRACKDAY
Author=DutchDevil
RefTimes=GT1#1:36.000,GT2#1:38.000,GT3#1:40.000,GT4#1:44.000,GT5#1:49.000,GT6#1:52.000,
Sets=Full
[Track]
TrackName=Donington 2004
TrackId=4DONINGTON
Author=Simbin
RefTimes=GT1#1:28.000,GT2#1:31.000,GT3#1:34.000,GT4#1:37.000,GT5#1:40.000,GT6#1:49.000,
Sets=2004,Full,GTR2,
[Track]
TrackName=Donington 2003
TrackId=3DONINGTON
Author=Simbin
RefTimes=GT1#1:28.000,GT2#1:31.000,GT3#1:34.000,GT4#1:37.000,GT5#1:40.000,GT6#1:49.000,
Sets=Full,2003,GTR2,
[Track]
TrackName=Le Mas du Clos 2006
TrackId=LEMASDUCLOS_2006
Author=TheSky
RefTimes=GT1#1:13.000,GT2#1:14.000,GT3#1:17.000,GT4#1:20.000,GT5#1:23.000,GT6#1:30.000,
Sets=Full
[Track]
TrackName=Monaco 1979
TrackId=79Monaco
Author=DutchDevil
RefTimes=GT1#1:40.000,GT2#1:41.000,GT3#1:46.000,GT4#1:50.000,GT5#1:53.000,GT6#2:02.000,
Sets=Full
[Track]
TrackName=Dijon Prenois Short
TrackId=SHDIJON
Author=zwiss
RefTimes=GT1#0:59.000,GT2#1:01.000,GT3#1:03.000,GT4#1:06.000,GT5#1:08.000,GT6#1:13.000,
Sets=Full
[Track]
TrackName=Birmingham Superprix
TrackId=BIRMHMSPRIX
Author=motorfx
RefTimes=GT1#1:26.000,GT2#1:29.000,GT3#1:31.000,GT4#1:34.000,GT5#1:38.000,GT6#1:48.000,
Sets=Full
[Track]
TrackName=Hockenheim National
TrackId=NTHOCKENHEIM
Author=Simbin
RefTimes=GT1#1:24.000,GT2#1:26.000,GT3#1:28.000,GT4#1:32.000,GT5#1:37.000,GT6#1:43.000,
Sets=Full,GTR2,
[Track]
TrackName=Jacarepagua 1988
TrackId=88JACAREPAGUA
Author=gobi
RefTimes=GT1#1:42.000,GT2#1:44.000,GT3#1:48.000,GT4#1:53.000,GT5#1:59.000,GT6#2:05.000,
Sets=Full
[Track]
TrackName=Kyalami GP
TrackId=KYA_GPM_05
Author=DutchDevil
RefTimes=GT1#1:37.000,GT2#1:39.000,GT3#1:44.000,GT4#1:46.000,GT5#1:50.000,GT6#1:58.000,
Sets=Full
[Track]
TrackName=Jiading West Long
TrackId=WLCHINA
Author=N2LO
RefTimes=GT1#1:12.000,GT2#1:14.000,GT3#1:17.000,GT4#1:20.000,GT5#1:22.000,GT6#1:28.000,
Sets=Full
[Track]
TrackName=Essington Long
TrackId=LESSINGTON
Author=zwiss
RefTimes=GT1#1:30.000,GT2#1:33.000,GT3#1:35.000,GT4#1:39.000,GT5#1:46.000,GT6#1:54.000,
Sets=Full
[Track]
TrackName=Kemora
TrackId=KEMORA
Author=Jalo Viina
RefTimes=GT1#1:02.000,GT2#1:03.000,GT3#1:05.000,GT4#1:09.000,GT5#1:12.000,GT6#1:14.000,
Sets=Full
[Track]
TrackName=Essington Club
TrackId=CESSINGTON
Author=zwiss
RefTimes=GT1#0:46.000,GT2#0:48.000,GT3#0:49.000,GT4#0:51.000,GT5#0:54.000,GT6#0:57.000,
Sets=Full
[Track]
TrackName=Donnybrooke Road
TrackId=DONNYBROOKE_ROAD
Author=N2
RefTimes=GT1#1:25.000,GT2#1:28.000,GT3#1:30.000,GT4#1:34.000,GT5#1:40.000,GT6#1:48.000,
Sets=Full
[Track]
TrackName=Montreal
TrackId=MONTREAL_GP
Author=racerm
RefTimes=GT1#1:34.000,GT2#1:36.000,GT3#1:40.000,GT4#1:43.000,GT5#1:47.000,GT6#1:58.000,
Sets=Full
[Track]
TrackName=E4 International Raceway
TrackId=E4INTERNATIONALRACEWAY
Author=DEHawk
RefTimes=GT1#1:53.000,GT2#1:55.000,GT3#2:00.000,GT4#2:04.000,GT5#2:09.000,GT6#2:19.000,
Sets=Full
[Track]
TrackName=Monza Junior
TrackId=JNMONZA
Author=Simbin
RefTimes=GT1#0:51.000,GT2#0:53.000,GT3#0:54.000,GT4#0:57.000,GT5#1:00.000,GT6#1:04.000,
Sets=Full,GTR2,
[Track]
TrackName=Gotzenburg
TrackId=GOTZENBURG
Author=Bruno.David2
RefTimes=GT1#1:46.000,GT2#1:50.000,GT3#1:52.000,GT4#1:58.000,GT5#2:01.000,GT6#2:14.000,
Sets=Full
[Track]
TrackName=Ahvenisto Full
TrackId=AHVENISTOFULL
Author=Keni1_9900026
RefTimes=GT1#1:21.000,GT2#1:22.000,GT3#1:25.000,GT4#1:29.000,GT5#1:31.000,GT6#1:37.000,
Sets=Full
[Track]
TrackName=Monza 2004
TrackId=4MONZA
Author=Simbin
RefTimes=GT1#1:43.000,GT2#1:47.000,GT3#1:51.000,GT4#1:54.000,GT5#2:00.000,GT6#2:12.000,
Sets=2004,Full,GTR2,
[Track]
TrackName=Le Mans 1979
TrackId=VLM_LEMANS79
Author=Virtua_LM
RefTimes=GT1#3:33.000,GT2#3:39.000,GT3#3:46.000,GT4#3:53.000,GT5#4:07.000,GT6#4:42.000,
Sets=Full
[Track]
TrackName=Monza 2003
TrackId=3MONZA
Author=Simbin
RefTimes=GT1#1:43.000,GT2#1:47.000,GT3#1:51.000,GT4#1:54.000,GT5#2:00.000,GT6#2:12.000,
Sets=Full,2003,GTR2,
[Track]
TrackName=Le Mans 1977
TrackId=VLM_LEMANS77
Author=Virtua_LM
RefTimes=GT1#3:34.000,GT2#3:41.000,GT3#3:50.000,GT4#3:58.000,GT5#4:10.000,GT6#4:45.000,
Sets=Full
[Track]
TrackName=Toban Short
TrackId=TOBAN_SHORT
Author=4ph3x
RefTimes=GT1#0:54.000,GT2#0:56.000,GT3#0:58.000,GT4#1:01.000,GT5#1:03.000,GT6#1:08.000,
Sets=Full
[Track]
TrackName=Misano 2005
TrackId=5MISANO
Author=Stepy
RefTimes=GT1#1:30.000,GT2#1:32.000,GT3#1:35.000,GT4#1:38.000,GT5#1:43.000,GT6#1:50.000,
Sets=Full
[Track]
TrackName=Brianza Junior
TrackId=BRIANZA_JR
Author=N2LO
RefTimes=GT1#0:46.000,GT2#0:47.000,GT3#0:49.000,GT4#0:51.000,GT5#0:53.000,GT6#0:58.000,
Sets=Full
[Track]
TrackName=Dubai National
TrackId=NDUBAI
Author=Simbin
RefTimes=GT1#1:21.000,GT2#1:23.000,GT3#1:25.000,GT4#1:28.000,GT5#1:33.000,GT6#1:39.000,
Sets=Full,GTR2,
[Track]
TrackName=Argentina no.9
TrackId=A09
Author=Tantra
RefTimes=GT1#1:08.000,GT2#1:10.000,GT3#1:14.000,GT4#1:17.000,GT5#1:18.000,GT6#1:23.000,
Sets=Full
[Track]
TrackName=Misano
TrackId=Misano
Author=Stepy
RefTimes=GT1#1:30.000,GT2#1:32.000,GT3#1:35.000,GT4#1:38.000,GT5#1:43.000,GT6#1:50.000,
Sets=Full
[Track]
TrackName=Imola 1994
TrackId=94IMOLA
Author=FIXED
RefTimes=GT1#1:35.000,GT2#1:38.000,GT3#1:41.000,GT4#1:46.000,GT5#1:51.000,GT6#2:01.000,
Sets=Full
[Track]
TrackName=Argentina no.6
TrackId=A06
Author=Tantra
RefTimes=GT1#1:41.000,GT2#1:44.000,GT3#1:48.000,GT4#1:52.000,GT5#1:55.000,GT6#2:04.000,
Sets=Full
[Track]
TrackName=Curitiba 2006
TrackId=6CURITIBA
Author=gobi & Werther
RefTimes=GT1#1:09.000,GT2#1:12.000,GT3#1:14.000,GT4#1:18.000,GT5#1:21.000,GT6#1:27.000,
Sets=Full
[Track]
TrackName=Argentina no.5
TrackId=A05
Author=Tantra
RefTimes=GT1#0:46.000,GT2#0:47.000,GT3#0:50.000,GT4#0:53.000,GT5#0:54.000,GT6#1:01.000,
Sets=Full
[Track]
TrackName=Hockenheim Short
TrackId=SHHOCKENHEIM
Author=Simbin
RefTimes=GT1#1:00.000,GT2#1:02.000,GT3#1:04.000,GT4#1:06.000,GT5#1:11.000,GT6#1:14.000,
Sets=Full,GTR2,
[Track]
TrackName=Londrina
TrackId=LONDRINA
Author=Frankalexandre
RefTimes=GT1#1:12.000,GT2#1:13.000,GT3#1:16.000,GT4#1:19.000,GT5#1:21.000,GT6#1:28.000,
Sets=Full
[Track]
TrackName=Dubai 2004
TrackId=4DUBAI
Author=Simbin
RefTimes=GT1#1:55.000,GT2#1:57.000,GT3#2:02.000,GT4#2:05.000,GT5#2:13.000,GT6#2:23.000,
Sets=2004,Full,GTR2,
[Track]
TrackName=Most
TrackId=MOST
Author=gobi
RefTimes=GT1#1:21.000,GT2#1:23.000,GT3#1:27.000,GT4#1:30.000,GT5#1:33.000,GT6#1:41.000,
Sets=Full
[Track]
TrackName=Jerez 1988
TrackId=88JEREZ
Author=gobi
RefTimes=GT1#1:37.000,GT2#1:38.000,GT3#1:43.000,GT4#1:46.000,GT5#1:50.000,GT6#1:58.000,
Sets=Full
[Track]
TrackName=Sachsenring 1967
TrackId=67_SACHS
Author=GTI-Heizer
RefTimes=GT1#2:19.000,GT2#2:22.000,GT3#2:28.000,GT4#2:35.000,GT5#2:42.000,GT6#3:02.000,
Sets=Full
[Track]
TrackName=Nordschleife VLN
TrackId=VLN
Author=DutchDevil
RefTimes=GT1#8:22.000,GT2#8:33.000,GT3#8:53.000,GT4#9:12.000,GT5#9:40.000,GT6#10:22.000,
Sets=Full
[Track]
TrackName=Most Chicane
TrackId=CMOST
Author=gobi
RefTimes=GT1#1:30.000,GT2#1:32.000,GT3#1:35.000,GT4#1:38.000,GT5#1:43.000,GT6#1:51.000,
Sets=Full
[Track]
TrackName=Jiading GP
TrackId=CHINESE_GP
Author=N2LO
RefTimes=GT1#1:59.000,GT2#2:02.000,GT3#2:07.000,GT4#2:11.000,GT5#2:16.000,GT6#2:27.000,
Sets=Full
[Track]
TrackName=Vallelunga Club
TrackId=CLUB
Author=DutchDevil
RefTimes=GT1#0:46.000,GT2#0:48.000,GT3#0:49.000,GT4#0:50.000,GT5#0:53.000,GT6#0:56.000,
Sets=Full
[Track]
TrackName=Hockenheim 2004
TrackId=GPHOCKENHEIM
Author=Simbin
RefTimes=GT1#1:37.000,GT2#1:41.000,GT3#1:45.000,GT4#1:47.000,GT5#1:52.000,GT6#2:00.000,
Sets=2004,Full,GTR2,
[Track]
TrackName=Jops Circuit de la Neuveville
TrackId=JOPS
Author=Neel Jani
RefTimes=GT1#1:16.000,GT2#1:18.000,GT3#1:22.000,GT4#1:25.000,GT5#1:28.000,GT6#1:35.000,
Sets=Full
[Track]
TrackName=Estoril 1988
TrackId=88ESTORIL
Author=GTI-Heizer
RefTimes=GT1#1:31.000,GT2#1:34.000,GT3#1:37.000,GT4#1:41.000,GT5#1:46.000,GT6#1:52.000,
Sets=Full
[Track]
TrackName=Le Mans 1967
TrackId=LEMANS67
Author=Mojo66
RefTimes=GT1#3:24.000,GT2#3:32.000,GT3#3:40.000,GT4#3:47.000,GT5#3:59.000,GT6#4:40.000,
Sets=Full
[Track]
TrackName=Calder Park
TrackId=CALDER
Author=Forza
RefTimes=GT1#0:55.000,GT2#0:56.000,GT3#0:58.000,GT4#1:00.000,GT5#1:02.000,GT6#1:08.000,
Sets=Full
[Track]
TrackName=Montreal 1979
TrackId=GPCMONTREAL
Author=motorfx
RefTimes=GT1#1:38.000,GT2#1:41.000,GT3#1:44.000,GT4#1:48.000,GT5#1:52.000,GT6#2:01.000,
Sets=Full
[Track]
TrackName=Jiading West Short
TrackId=WSCHINA
Author=N2LO
RefTimes=GT1#0:55.000,GT2#0:56.000,GT3#0:59.000,GT4#1:01.000,GT5#1:03.000,GT6#1:07.000,
Sets=Full
[Track]
TrackName=Fuji 1970
TrackId=70FUJI
Author=Khan1670
RefTimes=GT1#1:17.000,GT2#1:18.000,GT3#1:21.000,GT4#1:25.000,GT5#1:29.000,GT6#1:39.000,
Sets=Full
[Track]
TrackName=Spa Francorchamps 2004
TrackId=4SPA
Author=Simbin
RefTimes=GT1#2:14.000,GT2#2:18.000,GT3#2:22.000,GT4#2:30.000,GT5#2:36.000,GT6#2:48.000,
Sets=2004,Full,GTR2,
[Track]
TrackName=Spa Francorchamps 2003
TrackId=3SPA
Author=Simbin
RefTimes=GT1#2:11.000,GT2#2:14.000,GT3#2:20.000,GT4#2:26.000,GT5#2:33.000,GT6#2:44.000,
Sets=Full,2003,GTR2,
[Track]
TrackName=Mid Ohio 2007
TrackId=VLM_MIDOHIO
Author=Virtua_LM
RefTimes=GT1#1:19.000,GT2#1:20.000,GT3#1:23.000,GT4#1:26.000,GT5#1:29.000,GT6#1:36.000,
Sets=Full
[Track]
TrackName=Zolder 2005
TrackId=ZOLDER_05
Author=sunalp2
RefTimes=GT1#1:30.000,GT2#1:33.000,GT3#1:36.000,GT4#1:39.000,GT5#1:45.000,GT6#1:52.000,
Sets=Full
[Track]
TrackName=Ahvenisto Less Trees
TrackId=AHVENISTOLT
Author=Keni1_9900026
RefTimes=GT1#1:21.000,GT2#1:22.000,GT3#1:25.000,GT4#1:29.000,GT5#1:31.000,GT6#1:37.000,
Sets=Full
[Track]
TrackName=Adelaide GP
TrackId=ADELAIDE_GP
Author=GT_VIRUS
RefTimes=GT1#1:32.000,GT2#1:34.000,GT3#1:37.000,GT4#1:40.000,GT5#1:45.000,GT6#1:54.000,
Sets=Full
[Track]
TrackName=Mid America
TrackId=MIDAMERICA
Author=Step & Dumeklemmer
RefTimes=GT1#1:18.000,GT2#1:20.000,GT3#1:24.000,GT4#1:26.000,GT5#1:29.000,GT6#1:36.000,
Sets=Full
[Track]
TrackName=Lienz
TrackId=LIENZ_24H
Author=GTI-Heizer
RefTimes=GT1#3:30.000,GT2#3:33.000,GT3#3:44.000,GT4#3:49.000,GT5#3:55.000,GT6#4:14.000,
Sets=Full
[Track]
TrackName=Valencia 2004
TrackId=4GPVALENCIA
Author=Simbin
RefTimes=GT1#1:32.000,GT2#1:34.000,GT3#1:38.000,GT4#1:41.000,GT5#1:45.000,GT6#1:53.000,
Sets=2004,Full,GTR2,
[Track]
TrackName=Long Beach 2007
TrackId=7LONGBEACH
Author=Khan1670
RefTimes=GT1#1:18.000,GT2#1:19.000,GT3#1:22.000,GT4#1:25.000,GT5#1:28.000,GT6#1:36.000,
Sets=Full
[Track]
TrackName=Bahia
TrackId=BAHIA
Author=Toka Jay
RefTimes=GT1#1:09.000,GT2#1:11.000,GT3#1:14.000,GT4#1:16.000,GT5#1:20.000,GT6#1:26.000,
Sets=Full
[Track]
TrackName=Kyalami 1979
TrackId=79KYALAMI
Author=DutchDevil
RefTimes=GT1#1:12.000,GT2#1:13.000,GT3#1:16.000,GT4#1:19.000,GT5#1:22.000,GT6#1:29.000,
Sets=Full
[Track]
TrackName=Eastridge Road Course
TrackId=EASTRIDGE
Author=Bassguy
RefTimes=GT1#1:20.000,GT2#1:22.000,GT3#1:25.000,GT4#1:29.000,GT5#1:32.000,GT6#1:39.000,
Sets=Full
[Track]
TrackName=Charade 2006
TrackId=2006_CHARADE
Author=Neel Jani
RefTimes=GT1#1:49.000,GT2#1:51.000,GT3#1:5.000,GT4#1:58.000,GT5#2:02.000,GT6#2:12.000,
Sets=Full
[Track]
TrackName=Karjala
TrackId=KARJALA
Author=DEHawk
RefTimes=GT1#1:36.000,GT2#1:39.000,GT3#1:42.000,GT4#1:47.000,GT5#1:53.000,GT6#2:01.000,
Sets=Full
[Track]
TrackName=Anderstorp 2003
TrackId=3ANDERSTORP
Author=Simbin
RefTimes=GT1#1:26.000,GT2#1:29.000,GT3#1:31.000,GT4#1:34.000,GT5#1:38.000,GT6#1:46.000,
Sets=Full,2003,GTR2,
[Track]
TrackName=Le Mans Bugatti
TrackId=BUGATTI
Author=MR_INGALL
RefTimes=GT1#1:36.000,GT2#1:38.000,GT3#1:41.000,GT4#1:45.000,GT5#1:50.000,GT6#1:58.000,
Sets=Full
[Track]
TrackName=Monaco 2006
TrackId=EMG_Monaco
Author=Gobi
RefTimes=GT1#1:40.000,GT2#1:43.000,GT3#1:47.000,GT4#1:50.000,GT5#1:53.000,GT6#2:04.000,
Sets=Full
[Track]
TrackName=Miller Short
TrackId=SHORT
Author=motorfx
RefTimes=GT1#1:44.000,GT2#1:47.000,GT3#1:51.000,GT4#1:55.000,GT5#2:00.000,GT6#2:10.000,
Sets=Full
[Track]
TrackName=Buenos Aires 1979
TrackId=GPCBUENOSAIRES
Author=motorfx
RefTimes=GT1#1:47.000,GT2#1:50.000,GT3#1:55.000,GT4#2:00.000,GT5#2:05.000,GT6#2:14.000,
Sets=Full
[Track]
TrackName=Avus 1967
TrackId=AVUS
Author=Jimi-46
RefTimes=GT1#1:52.000,GT2#1:55.000,GT3#2:00.000,GT4#2:04.000,GT5#2:10.000,GT6#2:37.000,
Sets=Full
[Track]
TrackName=Macao 2005
TrackId=5MACAU
Author=Community Modders
RefTimes=GT1#2:16.000,GT2#2:19.000,GT3#2:24.000,GT4#2:29.000,GT5#2:35.000,GT6#2:49.000,
Sets=Full
[Track]
TrackName=Porto
TrackId=PORTO 
Author=napf
RefTimes=GT1#1:57.000,GT2#2:00.000,GT3#2:05.000,GT4#2:08.000,GT5#2:12.000,GT6#2:25.000,
Sets=Full
[Track]
TrackName=Elkhart Lake 2008
TrackId=ELKHARTLAKE_08
Author=Neel Jani
RefTimes=GT1#2:00.000,GT2#2:04.000,GT3#2:09.000,GT4#2:15.000,GT5#2:19.000,GT6#2:33.000,
Sets=Full
[Track]
TrackName=Nordschleife 24h
TrackId=NS24H
Author=DutchDevil
RefTimes=GT1#8:38.000,GT2#8:50.000,GT3#9:05.000,GT4#9:21.000,GT5#9:52.000,GT6#10:40.000,
Sets=Full
[Track]
TrackName=Adelaide 500
TrackId=ADELAIDE_500
Author=GT_VIRUS
RefTimes=GT1#1:28.000,GT2#1:31.000,GT3#1:34.000,GT4#1:37.000,GT5#1:42.000,GT6#1:52.000,
Sets=Full
[Track]
TrackName=Mid America D-curve
TrackId=DMAM
Author=derDumeklemmer
RefTimes=GT1#0:58.000,GT2#1:00.000,GT3#1:03.000,GT4#1:04.000,GT5#1:06.000,GT6#1:11.000,
Sets=Full
[Track]
TrackName=Barcelona 1991
TrackId=1991_BARCELONA
Author=montesky and mcsaltens
RefTimes=GT1#1:38.000,GT2#1:41.000,GT3#1:45.000,GT4#1:49.000,GT5#1:52.000,GT6#2:00.000,
Sets=Full
[Track]
TrackName=Mallala
TrackId=MALLALA
Author=PvtStash
RefTimes=GT1#1:03.000,GT2#1:04.000,GT3#1:07.000,GT4#1:09.000,GT5#1:12.000,GT6#1:18.000,
Sets=Full
[Track]
TrackName=Jarama 
TrackId=JARAMA-GP
Author=Neel Jani
RefTimes=GT1#1:27.000,GT2#1:30.000,GT3#1:34.000,GT4#1:36.000,GT5#1:41.000,GT6#1:49.000,
Sets=Full
[Track]
TrackName=Anderstorp South
TrackId=SANDERSTORP
Author=Simbin
RefTimes=GT1#0:46.000,GT2#0:48.000,GT3#0:50.000,GT4#0:51.000,GT5#0:53.000,GT6#0:56.000,
Sets=Full,GTR2,
[Track]
TrackName=GP 200 International
TrackId=GP200
Author=Khan1670
RefTimes=GT1#1:12.000,GT2#1:13.000,GT3#1:16.000,GT4#1:19.000,GT5#1:22.000,GT6#1:29.000,
Sets=Full
[Track]
TrackName=Edmonton City Airport
TrackId=CITYAIRPORT
Author=sunalp2
RefTimes=GT1#1:03.000,GT2#1:05.000,GT3#1:08.000,GT4#1:11.000,GT5#1:13.000,GT6#1:18.000,
Sets=Full
[Track]
TrackName=Hungaroring 1988
TrackId=88HUNGARORING
Author=gobi
RefTimes=GT1#1:43.000,GT2#1:45.000,GT3#1:49.000,GT4#1:53.000,GT5#1:57.000,GT6#2:05.000,
Sets=Full
[Track]
TrackName=Aida 2005
TrackId=05TIAIDA
Author=NeelJ
RefTimes=GT1#1:25.000,GT2#1:26.000,GT3#1:30.000,GT4#1:33.000,GT5#1:35.000,GT6#1:45.000,
Sets=Full
[Track]
TrackName=Albert Park
TrackId=MELBOURNE
Author=philrob
RefTimes=GT1#1:53.000,GT2#1:55.000,GT3#2:00.000,GT4#2:04.000,GT5#2:09.000,GT6#2:20.000,
Sets=Full
[Track]
TrackName=Mills Short
TrackId=MILLS_SHORT
Author=4ph3x
RefTimes=GT1#0:48.000,GT2#0:49.000,GT3#0:50.000,GT4#0:52.000,GT5#0:54.000,GT6#0:59.000,
Sets=Full
[Track]
TrackName=Castle Combe 2005
TrackId=CASTLE2005
Author=ZWISS
RefTimes=GT1#1:01.000,GT2#1:02.000,GT3#1:05.000,GT4#1:07.000,GT5#1:09.000,GT6#1:17.000,
Sets=Full
[Track]
TrackName=Bullrun
TrackId=BULLRUN
Author=Taku
RefTimes=GT1#1:27.000,GT2#1:30.000,GT3#1:33.000,GT4#1:37.000,GT5#1:42.000,GT6#1:56.000,
Sets=Full
[Track]
TrackName=Castle Combe Classic
TrackId=CASTLECLASSIC
Author=ZWISS
RefTimes=GT1#0:53.000,GT2#0:54.000,GT3#0:57.000,GT4#0:59.000,GT5#1:01.000,GT6#1:08.000,
Sets=Full
[Track]
TrackName=Lakeside
TrackId=LAKESIDE
Author=GTI-Heizer
RefTimes=GT1#0:48.000,GT2#0:49.000,GT3#0:51.000,GT4#0:53.000,GT5#0:55.000,GT6#0:59.000,
Sets=Full
[Track]
TrackName=Oschersleben B-Course
TrackId=4BOSCHERSLEBEN
Author=Simbin
RefTimes=GT1#1:00.000,GT2#1:01.000,GT3#1:03.000,GT4#1:05.000,GT5#1:08.000,GT6#1:11.000,
Sets=Full,GTR2,
[Track]
TrackName=Birmingham Sprint
TrackId=BIRMING_SHORT
Author=DutchDevil
RefTimes=GT1#0:55.000,GT2#0:56.000,GT3#0:58.000,GT4#1:00.000,GT5#1:02.000,GT6#1:07.000,
Sets=Full
[Track]
TrackName=Leipzig 1967
TrackId=67_LEIPZIG
Author=GTI-Heizer
RefTimes=GT1#1:23.000,GT2#1:25.000,GT3#1:29.000,GT4#1:32.000,GT5#1:36.000,GT6#1:44.000,
Sets=Full
[Track]
TrackName=Eastern Creek
TrackId=MMMEASTERNCREEK
Author=MR_INGALL
RefTimes=GT1#1:26.000,GT2#1:28.000,GT3#1:31.000,GT4#1:35.000,GT5#1:38.000,GT6#1:45.000,
Sets=Full
[Track]
TrackName=Gellerasen
TrackId=GELLERASEN
Author=derDumeklemmer
RefTimes=GT1#1:00.000,GT2#1:01.000,GT3#1:04.000,GT4#1:05.000,GT5#1:08.000,GT6#1:12.000,
Sets=Full
[Track]
TrackName=Lime Rock
TrackId=MTLIMEROCK
Author=N2LO
RefTimes=GT1#1:28.000,GT2#1:29.000,GT3#1:33.000,GT4#1:35.000,GT5#1:40.000,GT6#1:49.000,
Sets=Full
[Track]
TrackName=Interlagos
TrackId=5INTERLAGOS
Author=gobi werther LeeJr
RefTimes=GT1#1:30.000,GT2#1:32.000,GT3#1:36.000,GT4#1:39.000,GT5#1:43.000,GT6#1:52.000,
Sets=Full
[Track]
TrackName=Albi 2006
TrackId=ALBI_2006
Author=NeelJ
RefTimes=GT1#1:13.000,GT2#1:15.000,GT3#1:19.000,GT4#1:22.000,GT5#1:24.000,GT6#1:33.000,
Sets=Full
[Track]
TrackName=Miami Bayfront Park
TrackId=MIAMI
Author=gobi
RefTimes=GT1#0:48.000,GT2#0:49.000,GT3#0:50.000,GT4#0:52.000,GT5#0:54.000,GT6#0:58.000,
Sets=Full
[Track]
TrackName=Bathurst
TrackId=MMMBATHURST
Author=MR_INGALL
RefTimes=GT1#2:01.000,GT2#2:04.000,GT3#2:08.000,GT4#2:14.000,GT5#2:18.000,GT6#2:33.000,
Sets=Full
[Track]
TrackName=Brianza Full
TrackId=BRIANZA_FULL
Author=N2LO
RefTimes=GT1#2:25.000,GT2#2:30.000,GT3#2:37.000,GT4#2:43.000,GT5#2:51.000,GT6#3:18.000,
Sets=Full
[Track]
TrackName=Birmingham Club
TrackId=BIRMING_CLUB
Author=DutchDevil
RefTimes=GT1#0:29.000,GT2#0:30.000,GT3#0:31.000,GT4#0:32.000,GT5#0:33.000,GT6#0:37.000,
Sets=Full
[Track]
TrackName=Zhuhai 2004
TrackId=4ZHUHAI
Author=Simbin
RefTimes=GT1#1:30.000,GT2#1:33.000,GT3#1:36.000,GT4#1:39.000,GT5#1:44.000,GT6#1:53.000,
Sets=2004,Full,GTR2,
[Track]
TrackName=HFS Valley
TrackId=HFSVALLEY
Author=Thierrydu81
RefTimes=GT1#2:35.000,GT2#2:38.000,GT3#2:44.000,GT4#2:49.000,GT5#3:00.000,GT6#3:14.000,
Sets=Full
[Track]
TrackName=Falkenberg
TrackId=FALKENBERG
Author=Keni1_9900026
RefTimes=GT1#0:44.000,GT2#0:45.000,GT3#0:47.000,GT4#0:50.000,GT5#0:51.000,GT6#0:54.000,
Sets=Full
[Track]
TrackName=Amaroo 1967
TrackId=67_AMAROO
Author=sunalp2
RefTimes=GT1#0:45.000,GT2#0:46.000,GT3#0:48.000,GT4#0:50.000,GT5#0:51.000,GT6#0:55.000,
Sets=Full
[Track]
TrackName=Toban Long
TrackId=TOBAN_LONG
Author=4ph3x
RefTimes=GT1#1:26.000,GT2#1:28.000,GT3#1:31.000,GT4#1:34.000,GT5#1:39.000,GT6#1:45.000,
Sets=Full
[Track]
TrackName=Enna Pergusa 2003
TrackId=3ENNA
Author=Simbin
RefTimes=GT1#1:33.000,GT2#1:36.000,GT3#1:38.000,GT4#1:42.000,GT5#1:48.000,GT6#1:58.000,
Sets=Full,2003,GTR2,
[Track]
TrackName=Johor
TrackId=JOHOR-GP
Author=Neel Jani
RefTimes=GT1#1:26.000,GT2#1:28.000,GT3#1:32.000,GT4#1:35.000,GT5#1:38.000,GT6#1:45.000,
Sets=Full
[Track]
TrackName=Kyalami Night
TrackId=KYA_LIGHTS
Author=DutchDevil
RefTimes=GT1#1:37.000,GT2#1:39.000,GT3#1:44.000,GT4#1:46.000,GT5#1:50.000,GT6#1:58.000,
Sets=Full
[Track]
TrackName=Teretonga
TrackId=TERETONGA
Author=lasercutter
RefTimes=GT1#0:53.000,GT2#0:54.000,GT3#0:55.000,GT4#0:58.000,GT5#1:01.000,GT6#1:05.000,
Sets=Full
[Track]
TrackName=Bremgarten
TrackId=BREMGARTEN
Author=Strava
RefTimes=GT1#2:00.000,GT2#2:03.000,GT3#2:10.000,GT4#2:17.000,GT5#2:20.000,GT6#2:37.000,
Sets=Full
[Track]
TrackName=Donington National
TrackId=NDONINGTON
Author=Simbin
RefTimes=GT1#1:03.000,GT2#1:05.000,GT3#1:08.000,GT4#1:10.000,GT5#1:14.000,GT6#1:20.000,
Sets=Full,GTR2,
[Track]
TrackName=Dubai Club
TrackId=CDUBAI
Author=Simbin
RefTimes=GT1#0:59.000,GT2#1:02.000,GT3#1:03.000,GT4#1:05.000,GT5#1:07.000,GT6#1:12.000,
Sets=Full,GTR2,
[Track]
TrackName=Fuji 2007
TrackId=F107_Fuji
Author=Mojo66
RefTimes=GT1#1:36.000,GT2#1:39.000,GT3#1:42.000,GT4#1:45.000,GT5#1:49.000,GT6#1:58.000,
Sets=Full
[Track]
TrackName=Brianza HistB
TrackId=BRIANZA_HISTB
Author=N2LO
RefTimes=GT1#1:55.000,GT2#1:57.000,GT3#2:01.000,GT4#2:07.000,GT5#2:12.000,GT6#2:28.000,
Sets=Full
[Track]
TrackName=Cadwell Park
TrackId=CADWELL
Author=MotorFX and Philrob
RefTimes=GT1#1:19.000,GT2#1:21.000,GT3#1:25.000,GT4#1:28.000,GT5#1:31.000,GT6#1:37.000,
Sets=Full
[Track]
TrackName=Thruxton
TrackId=THRUXTON
Author=zero-G
RefTimes=GT1#1:08.000,GT2#1:10.000,GT3#1:12.000,GT4#1:15.000,GT5#1:20.000,GT6#1:25.000,
Sets=Full
